{
	"name": "cursor-hider",
	"title": "Cursor Hider",
	"description": "Allows participants in the game to hide the position of their mouse cursor temporarily or permanently.",
	"version": "1.1.4",
	"minimumCoreVersion": "0.4.4",
	"author": "Azzurite#2004",
	"scripts": [
		"settings-extender.js",
		"settings.js",
		"cursor-hider.js"
	],
	"styles": [],
	"packs": [],
	"languages": [
		{
			"lang": "en",
			"path": "languages/en.json"
		}
	],
	"socket": true,
	"manifest": "https://gitlab.com/foundry-azzurite/cursor-hider/raw/master/src/module.json",
	"download": "https://gitlab.com/foundry-azzurite/cursor-hider/raw/master/dist/cursor-hider.zip",
	"url": "https://gitlab.com/foundry-azzurite/cursor-hider"
}
